<svg xmlns="http://www.w3.org/2000/svg" width="13" height="13" viewBox="0 0 13 13">
    <path fill="none" fill-rule="evenodd" stroke="#000" stroke-linecap="round" stroke-linejoin="round" stroke-width="2" d="M6.5 6.5L1 12l5.5-5.5L1 1l5.5 5.5zm0 0L12 1 6.5 6.5 12 12 6.5 6.5z"/>
</svg>
