<svg xmlns="http://www.w3.org/2000/svg" width="24" height="24" viewBox="0 0 24 24">
    <g fill="none" fill-rule="evenodd" stroke="#6C6C6C" stroke-width="2" transform="translate(1 1)">
        <circle cx="11" cy="11" r="3"/>
        <path d="M18.4 14a1.65 1.65 0 0 0 .33 1.82l.06.06a2 2 0 1 1-2.83 2.83l-.06-.06a1.65 1.65 0 0 0-1.82-.33 1.65 1.65 0 0 0-1 1.51V20a2 2 0 1 1-4 0v-.09A1.65 1.65 0 0 0 8 18.4a1.65 1.65 0 0 0-1.82.33l-.06.06a2 2 0 1 1-2.83-2.83l.06-.06a1.65 1.65 0 0 0 .33-1.82 1.65 1.65 0 0 0-1.51-1H2a2 2 0 1 1 0-4h.09A1.65 1.65 0 0 0 3.6 8a1.65 1.65 0 0 0-.33-1.82l-.06-.06a2 2 0 1 1 2.83-2.83l.06.06a1.65 1.65 0 0 0 1.82.33H8a1.65 1.65 0 0 0 1-1.51V2a2 2 0 1 1 4 0v.09a1.65 1.65 0 0 0 1 1.51 1.65 1.65 0 0 0 1.82-.33l.06-.06a2 2 0 1 1 2.83 2.83l-.06.06a1.65 1.65 0 0 0-.33 1.82V8c.26.604.852.997 1.51 1H20a2 2 0 1 1 0 4h-.09a1.65 1.65 0 0 0-1.51 1z"/>
    </g>
</svg>
