<svg xmlns="http://www.w3.org/2000/svg" width="22" height="22" viewBox="0 0 22 22">
    <path fill="none" fill-rule="evenodd" stroke="#FFF" stroke-width="2" d="M13.193 8V4c0-1.657-1.364-3-3.048-3l-4.064 9v11h11.461a2.023 2.023 0 0 0 2.033-1.7l1.402-9c.09-.58-.084-1.17-.476-1.613A2.047 2.047 0 0 0 18.945 8h-5.752zM6.081 21H3.032C1.91 21 1 20.104 1 19v-7c0-1.105.91-2 2.032-2h3.049v11z"/>
</svg>
